# Copyright 1999-2012 Gentoo Foundation.
# Distributed under the terms of the GNU General Public License, v2
# $Header: /data/temp/gentoo//vcs-public-cvsroot/gentoo-x86/profiles/default/bsd/use.mask,v 1.16 2012/05/17 16:16:31 aballier Exp $

# Mart Raudsepp <leio@gentoo.org>
# net-misc/networkmanager not keyworded
networkmanager

# ulm told me to do it!
m17n-lib

# Linux-dependant flags
selinux
nptl
alsa
aoss
v4l
libv4l
fbcon
directfb
ev6
gpm
lirc
multilib
lm_sensors
nodroproot
caps
vidix
madwifi
jack
3dfx
pmount
nvidia
xvmc
xfs
udev
systemd
inotify

# This usually refers just to linux-dvb
dvb

# Hardened doesn't work on Gentoo/*BSD for now
hardened
pax_kernel

# termcap-compat doesn't work on BSD
termcap-compat

# useflags for php commercial software
hyperwave-api
interbase
mnogosearch
msql
ovrimos
sapdb

# Java requires that new-style virtuals are prepared for kaffe
java
gcj

# This requires a kernel module that's Linux specific right now
ifp

# This requires a usb-eject command
ipod

# Mask extraneous elibc/kernel combinations
-userland_BSD
elibc_glibc
kernel_linux
userland_GNU

# mask linux touch screen access lib.
tslib

# Mask Xorg-modular drivers that are Linux-specific
input_devices_aiptek
input_devices_evdev
input_devices_tslib
input_devices_linuxwacom
input_devices_synaptics
input_devices_ur98
input_devices_vmmouse
video_cards_newport
video_cards_sisusb
video_cards_v4l
video_cards_vmware
video_cards_nvidia
video_cards_nouveau

# Apache's MPM-itk requires sys-libs/libcap
mpm-itk

# Linux only sane backends
sane_backends_qcam

# Few database backends unlikely to be tested anytime soon.
mssql
firebird

# Diego E. Pettenò <flameeyes@gentoo.org> (19 oct 2010)
# unmasking flags that only apply to FreeBSD
-kqueue
